{
    "shell-version": ["3.10","3.12","3.14","3.16","3.18","3.20"],
    "uuid": "backslide@codeisland.org",
    "name": "BackSlide",
    "description": "Automatic background-image (wallpaper) slideshow for Gnome Shell",
    "original-author": "Lukas Knuth",
    "url": "https://bitbucket.org/LukasKnuth/backslide",
    "gettext-domain": "backslide"
}
